{
  "jsonid" : "input_profile",
  "controller_type": "arritrackers",
  "device_class" : "TrackedDeviceClass_Controller",
  "resource_root" : "arritrackers",
  "driver_name" : "arritrackers",
  "legacy_binding" :  "{arritrackers}/input/legacy_bindings_arritrackers.json",
  "legacy_profile" :  "none",
  "input_bindingui_mode" : "single_device",
  "should_show_binding_errors": true,
  "input_bindingui_left":
  {
    "transform": "scale(-1,1)",
    "image": "{arritrackers}/icons/tracker.svg"
  },
  "input_bindingui_right":
  {
    "image": "{arritrackers}/icons/tracker.svg"
  },
  "priority" : 6,
  "tracker_types" : {
    "TrackerRole_Handed":"{arritrackers}/input/arritrackers_profile_handed.json",
    "TrackerRole_LeftFoot":"{arritrackers}/input/arritrackers_profile_leftfoot.json",
    "TrackerRole_RightFoot":"{arritrackers}/input/arritrackers_profile_rightfoot.json",
    "TrackerRole_LeftShoulder":"{arritrackers}/input/arritrackers_profile_leftshoulder.json",
    "TrackerRole_RightShoulder":"{arritrackers}/input/arritrackers_profile_rightshoulder.json",
    "TrackerRole_LeftElbow":"{arritrackers}/input/arritrackers_profile_leftelbow.json",
    "TrackerRole_RightElbow":"{arritrackers}/input/arritrackers_profile_rightelbow.json",
    "TrackerRole_LeftKnee":"{arritrackers}/input/arritrackers_profile_leftknee.json",
    "TrackerRole_RightKnee":"{arritrackers}/input/arritrackers_profile_rightknee.json",
    "TrackerRole_Waist":"{arritrackers}/input/arritrackers_profile_waist.json",
    "TrackerRole_Chest":"{arritrackers}/input/arritrackers_profile_chest.json",
    "TrackerRole_Camera":"{arritrackers}/input/arritrackers_profile_camera.json",
    "TrackerRole_Keyboard":"{arritrackers}/input/arritrackers_profile_keyboard.json"
  },
  "input_source" :
  {
    "/pose/raw" : {
        "type" : "pose",
        "binding_image_point" : [ 0, 0 ]
    }
  }
}