{
  "jsonid" : "input_profile",
  "controller_type": "vive_tracker_right_knee",
  "device_class" : "TrackedDeviceClass_Controller",
  "resource_root" : "arritrackers",
  "driver_name" : "arritrackers",
  "legacy_binding" :  "{arritrackers}/input/legacy_bindings_arritrackers.json",
  "legacy_profile" :  "none",
  "input_bindingui_mode" : "single_device",
  "should_show_binding_errors": true,
  "input_bindingui_left":
  {
    "transform": "scale(-1,1)",
    "image": "{arritrackers}/icons/tracker.svg"
  },
  "input_bindingui_right":
  {
    "image": "{arritrackers}/icons/tracker.svg"
  },
  "priority" : 6,
  "input_source" :
  {
    "/pose/raw" : {
        "type" : "pose",
        "binding_image_point" : [ 0, 0 ]
    }
  }
}