{
   "bindings" : {
      "/actions/legacy" : {
         "haptics" : [
         ],
         "poses" : [
            {
               "output" : "/actions/legacy/in/Left_Pose",
               "path" : "/user/hand/left/pose/raw"
            },
            {
               "output" : "/actions/legacy/in/Right_Pose",
               "path" : "/user/hand/right/pose/raw"
            }
         ],
         "sources" : [
         ]
      }
   },
   "controller_type" : "arritrackers",
   "description" : "Default legacy binding",
   "name" : "Default legacy binding"
}
